Principal Component Analysis with Interactive Fixed Effect Model
…
Finally we compare loadings, factors and \(R^2\):

# loadings
dt_loadings <- merge(pca_loadings, ife_loadings, by = c("state"))
# are they proportional to each other (difference in scale)
dt_loadings[, .(state, prop_loadings1 = ife_loadings1/pc_loadings1)] %>% as_tibble

## # A tibble: 46 x 2
##    state prop_loadings1
##    <int>          <dbl>
##  1     1          -4721
##  2     3          -4721
##  3     4          -4721
##  4     5          -4721
##  5     7          -4721
##  6     8          -4721
##  7     9          -4721
##  8    10          -4721
##  9    11          -4721
## 10    13          -4721
## # ... with 36 more rows

We do the same thing for factors

# factors
dt_factors <- merge(pca_factors, ife_factors, by = c("year"))
# are they proportional to each other (difference in scale)
dt_factors[, .(year, prop_factors1 = ife_factors1/pc_factors1)] %>% as_tibble

## # A tibble: 30 x 2
##     year prop_factors1
##    <int>         <dbl>
##  1    63     -0.000212
##  2    64     -0.000212
##  3    65     -0.000212
##  4    66     -0.000212
##  5    67     -0.000212
##  6    68     -0.000212
##  7    69     -0.000212
##  8    70     -0.000212
##  9    71     -0.000212
## 10    72     -0.000212
## # ... with 20 more rows
…
ife <- 
  FixedEffectInteract(dt, lhs = "sales", rhs = "0", 
                      ife = "state+year", rank=1, 
                      fe = "state")
ife_loadings <- unique(ife$dt_augment[, .(state, ife_loadings1=loadings1)])
ife_factors  <- unique(ife$dt_augment[, .(year, ife_factors1=factors1)])

As in the previous example, we merge loadings, factors and compare \(R^2\):

# loadings
dt_loadings <- merge(pca_loadings, ife_loadings, by = c("state"))
# are they proportional to each other (difference in scale)
dt_loadings[, .(state, prop_loadings1 = ife_loadings1/pc_loadings1)] %>% as_tibble

## # A tibble: 46 x 2
##    state prop_loadings1
##    <int>          <dbl>
##  1     1            488
##  2     3            488
##  3     4            488
##  4     5            488
##  5     7            488
##  6     8            488
##  7     9            488
##  8    10            488
##  9    11            488
## 10    13            488
## # ... with 36 more rows

# factors
dt_factors <- merge(pca_factors, ife_factors, by = c("year"))
# are they proportional to each other (difference in scale)
dt_factors[, .(year, prop_factors1 = ife_factors1/pc_factors1)] %>% as_tibble

## # A tibble: 30 x 2
##     year prop_factors1
##    <int>         <dbl>
##  1    63       0.00205
##  2    64       0.00205
##  3    65       0.00205
##  4    66       0.00205
##  5    67       0.00205
##  6    68       0.00205
##  7    69       0.00205
##  8    70       0.00205
##  9    71       0.00205
## 10    72       0.00205
## # ... with 20 more rows
…
